Exploration des données
…
DASES

Action sociale

Les arbres référencés sont les arbres d’alignement, ceux des jardins, des cimetières, des équipements municipaux (écoles, etc.), du périphérique. Les arbres des bois de Boulogne et Vincennes sont seulement ceux des équipements municipaux. Les parcs non municipaux, comme le Jardin des Tuileries ou celui du Luxembourg, ne sont pas cartographiés.

Lieu

les_arbres@data %>% 
  group_by(arrondissement) %>% 
  summarise(Nombre=length(arrondissement)) %>% 
  arrange(desc(Nombre))

## # A tibble: 25 x 2
##    arrondissement    Nombre
##    <fct>              <int>
##  1 PARIS 15E ARRDT    17165
##  2 PARIS 16E ARRDT    16938
##  3 PARIS 13E ARRDT    16750
##  4 PARIS 20E ARRDT    15409
##  5 PARIS 19E ARRDT    13988
##  6 PARIS 12E ARRDT    12367
##  7 PARIS 14E ARRDT    11957
##  8 BOIS DE VINCENNES  11790
##  9 SEINE-SAINT-DENIS  11553
## 10 PARIS 17E ARRDT    10993
## # ... with 15 more rows
…
Espèces

library("entropart")
les_arbres_df %>% 
  group_by(spName) %>% 
  summarise(Nombre=length(spName)) %>% 
  arrange(desc(Nombre)) ->
  AbdFreqCount

Espèces les plus fréquentes :

AbdFreqCount

## # A tibble: 633 x 2
##    spName                 Nombre
##    <chr>                   <int>
##  1 Platanus x hispanica    33303
##  2 Aesculus hippocastanum  15507
##  3 Sophora japonica        10714
##  4 Tilia tomentosa          6987
##  5 Acer platanoides         4423
##  6 Acer pseudoplatanus      4418
##  7 Aesculus x carnea        4013
##  8 Celtis australis         3492
##  9 Tilia x europaea         3465
## 10 Platanus occidentalis    3221
## # ... with 623 more rows
…
